--------------------
Date: 1:6:2021
Time: 22:28
Phone number: +917838525136
Message: Hello shivam
--------------------
Date: 1:6:2021
Time: 22:28
Phone number: +917838525136
Message: Hello shivam
--------------------
Date: 1:6:2021
Time: 22:28
Phone number: +917838525136
Message: Hello shivam
--------------------
Date: 1:6:2021
Time: 22:28
Phone number: +918178851771
Message: Hello Kaif
--------------------
Date: 1:6:2021
Time: 22:28
Phone number: +918178851771
Message: Hello Kaif
--------------------
Date: 1:6:2021
Time: 22:28
Phone number: +918178851771
Message: Hello Kaif
--------------------
Date: 1:6:2021
Time: 22:28
Phone number: +918178851771
Message: Hello Kaif
--------------------
Date: 1:6:2021
Time: 17:26
Phone number: +918178851771
Message: Hello Kaif
--------------------
Date: 1:6:2021
Time: 13:46
Phone number: +918178851771
Message: Hello Kaif
--------------------
Date: 1:6:2021
Time: 13:46
Phone number: +918178851771
Message: Hello Kaif
--------------------
Date: 1:6:2021
Time: 13:48
Phone number: +918178851771
Message: Hello Kaif
--------------------
Date: 1:6:2021
Time: 13:49
Phone number: +918178851771
Message: Hello Kaif
--------------------
Date: 1:6:2021
Time: 13:53
Phone number: +918178851771
Message: hi i am kaif
--------------------
Date: 1:6:2021
Time: 13:55
Phone number: +918178851771
Message: hi i am kaifhi i am kaifhi i am kaifhi i am kaifhi i am kaifhi i am kaifhi i am kaifhi i am kaifhi i am kaifhi i am kaifhi i am kaifhi i am kaifhi i am kaifhi i am kaifhi i am kaifhi i am kaifhi i am kaifhi i am kaifhi i am kaifhi i am kaifhi i am kaifhi i am kaifhi i am kaifhi i am kaifhi i am kaifhi i am kaifhi i am kaifhi i am kaifhi i am kaifhi i am kaifhi i am kaif
--------------------
Date: 1:6:2021
Time: 14:16
Phone number: +918178851771
Message: Hi shad this is shivam sending using django 
--------------------
Date: 1:6:2021
Time: 14:16
Phone number: +919891266450
Message: Hi shad this is shivam sending using django 
--------------------
Date: 1:6:2021
Time: 14:17
Phone number: +919891266450
Message: Hi shad this is shivam sending using django 
--------------------
Date: 1:6:2021
Time: 14:17
Phone number: +919891266450
Message: Hi shad this is shivam sending using django 
--------------------
Date: 1:6:2021
Time: 14:18
Phone number: +919891266450
Message: Hi shad this is shivam sending using django 
--------------------
Date: 1:6:2021
Time: 14:20
Phone number: +919891266450
Message: Hi shad this is shivam sending using django 
--------------------
Date: 1:6:2021
Time: 14:20
Phone number: +919891266450
Message: Hi shad this is shivam sending using django 
--------------------
Date: 1:6:2021
Time: 14:22
Phone number: +919891266450
Message: Hi shad this is shivam sending using django 
--------------------
Date: 1:6:2021
Time: 14:23
Phone number: +919910804595
Message: Hi shad this is shivam sending using django 
--------------------
Date: 1:6:2021
Time: 14:24
Phone number: +919910804595
Message: Hi shad this is shivam sending using django 
--------------------
